,Občina
0,AJDOVŠČINA
1,ANKARAN
2,APAČE
3,BELTINCI
4,BENEDIKT
5,BISTRICA OB SOTLI
6,BLED
7,BLOKE
8,BOHINJ
9,BOROVNICA
10,BOVEC
11,BRASLOVČE
12,BRDA
13,BREZOVICA
14,BREŽICE
15,CANKOVA
16,CELJE
17,CERKLJE NA GORENJSKEM
18,CERKNICA
19,CERKNO
20,CERKVENJAK
21,CIRKULANE
22,DESTRNIK
23,DIVAČA
24,DOBJE
25,DOBREPOLJE
26,DOBRNA
27,DOBROVA-POLHOV GRADEC
28,DOBROVNIK
29,DOL PRI LJUBLJANI
30,DOLENJSKE TOPLICE
31,DOMŽALE
32,DORNAVA
33,DRAVOGRAD
34,DUPLEK
35,GORENJA VAS-POLJANE
36,GORIŠNICA
37,GORJE
38,GORNJA RADGONA
39,GORNJI GRAD
40,GORNJI PETROVCI
41,GRAD
42,GROSUPLJE
43,HAJDINA
44,HODOŠ
45,HORJUL
46,HOČE-SLIVNICA
47,HRASTNIK
48,HRPELJE-KOZINA
49,IDRIJA
50,IG
51,ILIRSKA BISTRICA
52,IVANČNA GORICA
53,IZOLA
54,JESENICE
55,JEZERSKO
56,JURŠINCI
57,KAMNIK
58,KANAL
59,KIDRIČEVO
60,KOBARID
61,KOBILJE
62,KOMEN
63,KOMENDA
64,KOPER
65,KOSTANJEVICA NA KRKI
66,KOSTEL
67,KOZJE
68,KOČEVJE
69,KRANJ
70,KRANJSKA GORA
71,KRIŽEVCI
72,KRŠKO
73,KUNGOTA
74,KUZMA
75,LAŠKO
76,LENART
77,LENDAVA
78,LITIJA
79,LJUBLJANA
80,LJUBNO
81,LJUTOMER
82,LOG-DRAGOMER
83,LOGATEC
84,LOVRENC NA POHORJU
85,LOŠKA DOLINA
86,LOŠKI POTOK
87,LUKOVICA
88,LUČE
89,MAJŠPERK
90,MAKOLE
91,MARIBOR
92,MARKOVCI
93,MEDVODE
94,MENGEŠ
95,METLIKA
96,MEŽICA
97,MIKLAVŽ NA DRAVSKEM POLJU
98,MIREN-KOSTANJEVICA
99,MIRNA
100,MIRNA PEČ
101,MISLINJA
102,MOKRONOG-TREBELNO
103,MORAVSKE TOPLICE
104,MORAVČE
105,MOZIRJE
106,MURSKA SOBOTA
107,MUTA
108,NAKLO
109,NAZARJE
110,NOVA GORICA
111,NOVO MESTO
112,ODRANCI
113,OPLOTNICA
114,ORMOŽ
115,OSILNICA
116,PESNICA
117,PIRAN
118,PIVKA
119,PODLEHNIK
120,PODVELKA
121,PODČETRTEK
122,POLJČANE
123,POLZELA
124,POSTOJNA
125,PREBOLD
126,PREDDVOR
127,PREVALJE
128,PTUJ
129,PUCONCI
130,RADENCI
131,RADEČE
132,RADLJE OB DRAVI
133,RADOVLJICA
134,RAVNE NA KOROŠKEM
135,RAZKRIŽJE
136,RAČE-FRAM
137,RENČE-VOGRSKO
138,REČICA OB SAVINJI
139,RIBNICA
140,RIBNICA NA POHORJU
141,ROGATEC
142,ROGAŠKA SLATINA
143,ROGAŠOVCI
144,RUŠE
145,SELNICA OB DRAVI
146,SEMIČ
147,SEVNICA
148,SEŽANA
149,SLOVENJ GRADEC
150,SLOVENSKA BISTRICA
151,SLOVENSKE KONJICE
152,SODRAŽICA
153,SOLČAVA
154,SREDIŠČE OB DRAVI
155,STARŠE
156,STRAŽA
157,SV. TROJICA V SLOV. GORICAH
158,SVETA ANA
159,SVETI ANDRAŽ V SLOV. GORICAH
160,SVETI JURIJ OB ŠČAVNICI
161,SVETI JURIJ V SLOV. GORICAH
162,SVETI TOMAŽ
163,TABOR
164,TIŠINA
165,TOLMIN
166,TRBOVLJE
167,TREBNJE
168,TRNOVSKA VAS
169,TRZIN
170,TRŽIČ
171,TURNIŠČE
172,VELENJE
173,VELIKA POLANA
174,VELIKE LAŠČE
175,VERŽEJ
176,VIDEM
177,VIPAVA
178,VITANJE
179,VODICE
180,VOJNIK
181,VRANSKO
182,VRHNIKA
183,VUZENICA
184,ZAGORJE OB SAVI
185,ZAVRČ
186,ZREČE
187,ČRENŠOVCI
188,ČRNA NA KOROŠKEM
189,ČRNOMELJ
190,ŠALOVCI
191,ŠEMPETER-VRTOJBA
192,ŠENTILJ
193,ŠENTJERNEJ
194,ŠENTJUR
195,ŠENTRUPERT
196,ŠENČUR
197,ŠKOCJAN
198,ŠKOFJA LOKA
199,ŠKOFLJICA
200,ŠMARJE PRI JELŠAH
201,ŠMARJEŠKE TOPLICE
202,ŠMARTNO OB PAKI
203,ŠMARTNO PRI LITIJI
204,ŠOŠTANJ
205,ŠTORE
206,ŽALEC
207,ŽELEZNIKI
208,ŽETALE
209,ŽIRI
210,ŽIROVNICA
211,ŽUŽEMBERK
